Project1
…
  # Now:
  data %>% select(all_of(all_cat_vars))

See <https://tidyselect.r-lib.org/reference/faq-external-vector.html>.

$Numeric_Summary
# A tibble: 1 × 8
  AGEP_sample_mean GASP_sample_mean GRPIP_sample_mean JWMNP_sample_mean
             <dbl>            <dbl>             <dbl>             <dbl>
1             39.6             49.5              9.64              10.0
# ℹ 4 more variables: AGEP_sample_sd <dbl>, GASP_sample_sd <dbl>,
#   GRPIP_sample_sd <dbl>, JWMNP_sample_sd <dbl>

$Categorical_Counts
# A tibble: 43 × 3
   variable value                                                weighted_count
   <chr>    <fct>                                                         <dbl>
 1 FER      N/A (less than 15 years/greater than 50 years/ male)        8179426
 2 FER      Yes                                                          127864
 3 FER      No                                                          2391683
 4 HHL      N/A (GQ/vacant)                                              281244
 5 HHL      English Only                                                8636010
 6 HHL      Spanish                                                     1075744
 7 HHL      Other Indo-European languages                                326612
 8 HHL      Asian and Pacific Island languages                           260114
 9 HHL      Other Language                                               119249
10 HISPEED  Yes                                                         8316849
# ℹ 33 more rows
…
# Test of entering tibble with more than one numerical variable
summary_census(sample_data, numeric_var = c("AGEP", "GASP"))

$Numeric_Summary
# A tibble: 1 × 4
  AGEP_sample_mean GASP_sample_mean AGEP_sample_sd GASP_sample_sd
             <dbl>            <dbl>          <dbl>          <dbl>
1             39.6             49.5           23.2           127.

# Test of entering tibble with more than one categorical variable
summary_census(sample_data, cat_var = c("SEX", "SCHL"))

# A tibble: 27 × 3
   variable value                       weighted_count
   <chr>    <fct>                                <dbl>
 1 SCHL     N/A (less than 3 years old)         333805
 2 SCHL     No schooling completed              359428
 3 SCHL     Nursery school, preschool           151144
 4 SCHL     Kindergarten                        124318
 5 SCHL     Grade 1                             118561
 6 SCHL     Grade 2                             134499
 7 SCHL     Grade 3                             144116
 8 SCHL     Grade 4                             142466
 9 SCHL     Grade 5                             154565
10 SCHL     Grade 6                             166475
# ℹ 17 more rows
…
